{
    "initialization time": "385.242ms",
    "deadlock": {
        "result": true,
        "final sets": {
            "traps": [],
            "flows": [],
            "siphons": [],
            "invariants": [
                "all1 i: (in_size(i) => ((i in eating & i notin waiting) | (i notin eating & i in waiting)))",
                "all1 i: (in_size(i) => ((i in busy & i notin free) | (i notin busy & i in free)))",
                "all1 i, j: ((0 <= i & i < n & is_next(i, j)) => (i in eating | j in eating | j in free))",
                "all1 i, j: ((0 <= i & i < n & is_next(i, j)) => (i in waiting | j in waiting | j in busy))",
                "ex2 even: ((0 in even & all1 i: ((0 <= i & i < n) => (i in even <=> i+1 notin even))) & (n in even => (ex1 i: ((0 <= i & i < n) & ((i in even & i in busy) | (i notin even & i in free))))))",
                "ex2 even: ((0 in even & all1 i: ((0 <= i & i < n) => (i in even <=> i+1 notin even))) & (n in even => (ex1 i: ((0 <= i & i < n) & ((i in even & i in free) | (i notin even & i in busy))))))"
            ]
        },
        "log": [
            {
                "counter example": "{'n': 2, 'busy': (1,), 'eating': (), 'free': (0,), 'waiting': (0, 1)}",
                "info": "User added all1 i, j: ((0 <= i & i < n & is_next(i, j)) => (i in eating | j in eating | j in free)) to the system."
            },
            {
                "counter example": "{'n': 2, 'busy': (1,), 'eating': (1,), 'free': (0,), 'waiting': (0,)}",
                "info": "User added all1 i, j: ((0 <= i & i < n & is_next(i, j)) => (i in waiting | j in waiting | j in busy)) to the system."
            },
            {
                "counter example": "{'n': 2, 'busy': (1,), 'eating': (1,), 'free': (0,), 'waiting': (0,)}",
                "info": "User added ex2 even: ((0 in even & all1 i: ((0 <= i & i < n) => (i in even <=> i+1 notin even))) & (n in even => (ex1 i: ((0 <= i & i < n) & ((i in even & i in busy) | (i notin even & i in free)))))) to the system."
            },
            {
                "counter example": "{'n': 2, 'busy': (0,), 'eating': (1,), 'free': (1,), 'waiting': (0,)}",
                "info": "User added ex2 even: ((0 in even & all1 i: ((0 <= i & i < n) => (i in even <=> i+1 notin even))) & (n in even => (ex1 i: ((0 <= i & i < n) & ((i in even & i in free) | (i notin even & i in busy)))))) to the system."
            }
        ],
        "time": "53144.412ms",
        "reduction time": "0.029ms"
    }
}
