{
    "initialization time": "539.178ms",
    "deadlock": {
        "result": true,
        "final sets": {
            "traps": [],
            "flows": [],
            "siphons": [],
            "invariants": [
                "all1 i: (in_size(i) => ((i in dirty & i notin dirtyshared & i notin exclusive & i notin invalid & i notin shared) | (i notin dirty & i in dirtyshared & i notin exclusive & i notin invalid & i notin shared) | (i notin dirty & i notin dirtyshared & i in exclusive & i notin invalid & i notin shared) | (i notin dirty & i notin dirtyshared & i notin exclusive & i in invalid & i notin shared) | (i notin dirty & i notin dirtyshared & i notin exclusive & i notin invalid & i in shared)))"
            ]
        },
        "log": [],
        "time": "14.481ms",
        "reduction time": "0.024ms"
    },
    "exclusivedirty": {
        "result": true,
        "final sets": {
            "traps": [],
            "flows": [],
            "siphons": [],
            "invariants": [
                "all1 i: (in_size(i) => ((i in dirty & i notin dirtyshared & i notin exclusive & i notin invalid & i notin shared) | (i notin dirty & i in dirtyshared & i notin exclusive & i notin invalid & i notin shared) | (i notin dirty & i notin dirtyshared & i in exclusive & i notin invalid & i notin shared) | (i notin dirty & i notin dirtyshared & i notin exclusive & i in invalid & i notin shared) | (i notin dirty & i notin dirtyshared & i notin exclusive & i notin invalid & i in shared)))",
                "all1 i, j: ((0 <= i & i < n & 0 <= j & j < n & i ~= j) => (i in dirty | i in dirtyshared | i in invalid | j in invalid | i in shared))"
            ]
        },
        "log": [
            {
                "counter example": "{'n': 2, 'dirty': (), 'dirtyshared': (), 'exclusive': (0, 1), 'invalid': (), 'shared': ()}",
                "info": "User added all1 i, j: ((0 <= i & i < n & 0 <= j & j < n & i ~= j) => (i in dirty | i in dirtyshared | i in invalid | j in invalid | i in shared)) to the system."
            }
        ],
        "time": "61251.181ms",
        "reduction time": "0.009ms"
    },
    "shareddirty": {
        "result": true,
        "final sets": {
            "traps": [],
            "flows": [],
            "siphons": [],
            "invariants": [
                "all1 i: (in_size(i) => ((i in dirty & i notin dirtyshared & i notin exclusive & i notin invalid & i notin shared) | (i notin dirty & i in dirtyshared & i notin exclusive & i notin invalid & i notin shared) | (i notin dirty & i notin dirtyshared & i in exclusive & i notin invalid & i notin shared) | (i notin dirty & i notin dirtyshared & i notin exclusive & i in invalid & i notin shared) | (i notin dirty & i notin dirtyshared & i notin exclusive & i notin invalid & i in shared)))",
                "all1 i, j: ((0 <= i & i < n & 0 <= j & j < n & i ~= j) => (i in dirty | i in dirtyshared | i in invalid | j in invalid | i in shared))",
                "all1 i, j: ((0 <= i & i < n & i ~= j & 0 <= j & j < n) => (i in dirty | j in dirtyshared | i in exclusive | i in invalid | j in invalid | j in shared))"
            ]
        },
        "log": [
            {
                "counter example": "{'n': 2, 'dirty': (), 'dirtyshared': (), 'exclusive': (1,), 'invalid': (), 'shared': (0,)}",
                "info": "User added all1 i, j: ((0 <= i & i < n & 0 <= j & j < n & i ~= j) => (i in dirty | i in dirtyshared | i in invalid | j in invalid | i in shared)) to the system."
            },
            {
                "counter example": "{'n': 3, 'dirty': (2,), 'dirtyshared': (0, 1), 'exclusive': (), 'invalid': (), 'shared': ()}",
                "info": "User added all1 i, j: ((0 <= i & i < n & i ~= j & 0 <= j & j < n) => (i in dirty | j in dirtyshared | i in exclusive | i in invalid | j in invalid | j in shared)) to the system."
            }
        ],
        "time": "272888.028ms",
        "reduction time": "0.009ms"
    },
    "dirtyshareddirty": {
        "result": true,
        "final sets": {
            "traps": [],
            "flows": [],
            "siphons": [],
            "invariants": [
                "all1 i: (in_size(i) => ((i in dirty & i notin dirtyshared & i notin exclusive & i notin invalid & i notin shared) | (i notin dirty & i in dirtyshared & i notin exclusive & i notin invalid & i notin shared) | (i notin dirty & i notin dirtyshared & i in exclusive & i notin invalid & i notin shared) | (i notin dirty & i notin dirtyshared & i notin exclusive & i in invalid & i notin shared) | (i notin dirty & i notin dirtyshared & i notin exclusive & i notin invalid & i in shared)))",
                "(n = 2 => (1 in dirty | 1 in exclusive | 1 in invalid | 0 in invalid | 0 in shared | 1 in shared))",
                "(n = 2 => (1 in dirty | 1 in dirtyshared | 1 in invalid | 0 in invalid | 1 in shared))",
                "all1 i,j: ((0 <= i & i < n & 0 <= j & j < n & i ~= j) => (j in dirty | i in dirtyshared | j in exclusive | i in invalid | j in invalid | i in shared))"
            ]
        },
        "log": [
            {
                "counter example": "{'n': 2, 'dirty': (), 'dirtyshared': (1,), 'exclusive': (0,), 'invalid': (), 'shared': ()}",
                "info": "User added (n = 2 => (1 in dirty | 1 in exclusive | 1 in invalid | 0 in invalid | 0 in shared | 1 in shared)) to the system."
            },
            {
                "counter example": "{'n': 2, 'dirty': (), 'dirtyshared': (0,), 'exclusive': (1,), 'invalid': (), 'shared': ()}",
                "info": "User added (n = 2 => (1 in dirty | 1 in dirtyshared | 1 in invalid | 0 in invalid | 1 in shared)) to the system."
            },
            {
                "counter example": "{'n': 3, 'dirty': (), 'dirtyshared': (2,), 'exclusive': (1,), 'invalid': (), 'shared': (0,)}",
                "info": "User added all1 i,j: ((0 <= i & i < n & 0 <= j & j < n & i ~= j) => (j in dirty | i in dirtyshared | j in exclusive | i in invalid | j in invalid | i in shared)) to the system."
            }
        ],
        "time": "332411.288ms",
        "reduction time": "0.009ms"
    },
    "exclusiveshared": {
        "result": true,
        "final sets": {
            "traps": [],
            "flows": [],
            "siphons": [],
            "invariants": [
                "all1 i: (in_size(i) => ((i in dirty & i notin dirtyshared & i notin exclusive & i notin invalid & i notin shared) | (i notin dirty & i in dirtyshared & i notin exclusive & i notin invalid & i notin shared) | (i notin dirty & i notin dirtyshared & i in exclusive & i notin invalid & i notin shared) | (i notin dirty & i notin dirtyshared & i notin exclusive & i in invalid & i notin shared) | (i notin dirty & i notin dirtyshared & i notin exclusive & i notin invalid & i in shared)))",
                "all1 i: ((0 <= i& i < n) => (i in dirty | i in exclusive | ex1 j: (0 <= j & j < n & (j in invalid | j in shared))))",
                "all1 i, j: ((0 <= i & i < n & 0 <= j & j < n & i ~= j) => (j in dirty | i in dirtyshared | j in exclusive | i in invalid | j in invalid | i in shared))"
            ]
        },
        "log": [
            {
                "counter example": "{'n': 3, 'dirty': (), 'dirtyshared': (1, 2), 'exclusive': (0,), 'invalid': (), 'shared': ()}",
                "info": "User added all1 i: ((0 <= i& i < n) => (i in dirty | i in exclusive | ex1 j: (0 <= j & j < n & (j in invalid | j in shared)))) to the system."
            },
            {
                "counter example": "{'n': 4, 'dirty': (), 'dirtyshared': (2, 3), 'exclusive': (1,), 'invalid': (0,), 'shared': ()}",
                "info": "User added all1 i, j: ((0 <= i & i < n & 0 <= j & j < n & i ~= j) => (j in dirty | i in dirtyshared | j in exclusive | i in invalid | j in invalid | i in shared)) to the system."
            }
        ],
        "time": "213265.334ms",
        "reduction time": "0.009ms"
    },
    "dirtysharedexclusive": {
        "result": true,
        "final sets": {
            "traps": [],
            "flows": [],
            "siphons": [],
            "invariants": [
                "all1 i: (in_size(i) => ((i in dirty & i notin dirtyshared & i notin exclusive & i notin invalid & i notin shared) | (i notin dirty & i in dirtyshared & i notin exclusive & i notin invalid & i notin shared) | (i notin dirty & i notin dirtyshared & i in exclusive & i notin invalid & i notin shared) | (i notin dirty & i notin dirtyshared & i notin exclusive & i in invalid & i notin shared) | (i notin dirty & i notin dirtyshared & i notin exclusive & i notin invalid & i in shared)))",
                "(n = 3) => (2 in dirty | 2 in dirtyshared | 1 in invalid | 2 in invalid | 2 in shared)",
                "(n = 3) => (2 in dirty | 1 in dirtyshared | 2 in exclusive | 1 in invalid | 2 in invalid | 1 in shared)",
                "all1 i,j: ((0 <= i & i < n & 0 <= j & j < n & i ~= j) => (i in dirty | i in dirtyshared | j in invalid | i in invalid | i in shared))"
            ]
        },
        "log": [
            {
                "counter example": "{'n': 3, 'dirty': (), 'dirtyshared': (), 'exclusive': (2,), 'invalid': (), 'shared': (0, 1)}",
                "info": "User added (n = 3) => (2 in dirty | 2 in dirtyshared | 1 in invalid | 2 in invalid | 2 in shared) to the system."
            },
            {
                "counter example": "{'n': 3, 'dirty': (), 'dirtyshared': (), 'exclusive': (1,), 'invalid': (), 'shared': (0, 2)}",
                "info": "User added (n = 3) => (2 in dirty | 1 in dirtyshared | 2 in exclusive | 1 in invalid | 2 in invalid | 1 in shared) to the system."
            },
            {
                "counter example": "{'n': 3, 'dirty': (), 'dirtyshared': (), 'exclusive': (0,), 'invalid': (), 'shared': (1, 2)}",
                "trap": "{'Tdirty': (2,), 'Tdirtyshared': (0,), 'Texclusive': (2,), 'Tinvalid': (0, 2), 'Tshared': (0,), 'n': 3}",
                "info": "Abducted trap generator n = 3 & dirty = {2} & dirtyshared = {0} & exclusive = {2} & invalid = {0, 2} & shared = {0} for the user."
            },
            {
                "counter example": "{'n': 4, 'dirty': (), 'dirtyshared': (), 'exclusive': (3,), 'invalid': (), 'shared': (0, 1, 2)}",
                "info": "User added all1 i,j: ((0 <= i & i < n & 0 <= j & j < n & i ~= j) => (i in dirty | i in dirtyshared | j in invalid | i in invalid | i in shared)) to the system."
            }
        ],
        "time": "444487.23ms",
        "reduction time": "30.3ms"
    },
    "dirtydirty": {
        "result": true,
        "final sets": {
            "traps": [],
            "flows": [],
            "siphons": [],
            "invariants": [
                "all1 i: (in_size(i) => ((i in dirty & i notin dirtyshared & i notin exclusive & i notin invalid & i notin shared) | (i notin dirty & i in dirtyshared & i notin exclusive & i notin invalid & i notin shared) | (i notin dirty & i notin dirtyshared & i in exclusive & i notin invalid & i notin shared) | (i notin dirty & i notin dirtyshared & i notin exclusive & i in invalid & i notin shared) | (i notin dirty & i notin dirtyshared & i notin exclusive & i notin invalid & i in shared)))",
                "all1 i, j: ((0 <= i & i < n & 0 <= j & j < n & i ~= j) => (i in dirty | i in dirtyshared | i in invalid | j in invalid | i in shared))",
                "all1 i,j: ((0 <= i & i < n & 0 <= j & j < n & i ~= j) => (i in dirty | j in dirtyshared | i in exclusive | i in invalid | j in invalid | j in shared))"
            ]
        },
        "log": [
            {
                "counter example": "{'n': 2, 'dirty': (1,), 'dirtyshared': (), 'exclusive': (0,), 'invalid': (), 'shared': ()}",
                "trap": "{'Tdirty': (0,), 'Tdirtyshared': (0,), 'Texclusive': (), 'Tinvalid': (0, 1), 'Tshared': (0,), 'n': 2}",
                "info": "Abducted trap generator n = 2 & dirty = {0} & dirtyshared = {0} & exclusive = empty & invalid = {0, 1} & shared = {0} for the user."
            },
            {
                "counter example": "{'n': 2, 'dirty': (0,), 'dirtyshared': (), 'exclusive': (1,), 'invalid': (), 'shared': ()}",
                "trap": "{'Tdirty': (1,), 'Tdirtyshared': (1,), 'Texclusive': (), 'Tinvalid': (0, 1), 'Tshared': (1,), 'n': 2}",
                "info": "Abducted trap generator n = 2 & dirty = {1} & dirtyshared = {1} & exclusive = empty & invalid = {0, 1} & shared = {1} for the user."
            },
            {
                "counter example": "{'n': 3, 'dirty': (2,), 'dirtyshared': (), 'exclusive': (1,), 'invalid': (), 'shared': (0,)}",
                "info": "User added all1 i, j: ((0 <= i & i < n & 0 <= j & j < n & i ~= j) => (i in dirty | i in dirtyshared | i in invalid | j in invalid | i in shared)) to the system."
            },
            {
                "counter example": "{'n': 2, 'dirty': (1,), 'dirtyshared': (), 'exclusive': (), 'invalid': (), 'shared': (0,)}",
                "info": "User added all1 i,j: ((0 <= i & i < n & 0 <= j & j < n & i ~= j) => (i in dirty | j in dirtyshared | i in exclusive | i in invalid | j in invalid | j in shared)) to the system."
            }
        ],
        "time": "223393.625ms",
        "reduction time": "58.11ms"
    },
    "exclusiveexclusive": {
        "result": true,
        "final sets": {
            "traps": [],
            "flows": [],
            "siphons": [],
            "invariants": [
                "all1 i: (in_size(i) => ((i in dirty & i notin dirtyshared & i notin exclusive & i notin invalid & i notin shared) | (i notin dirty & i in dirtyshared & i notin exclusive & i notin invalid & i notin shared) | (i notin dirty & i notin dirtyshared & i in exclusive & i notin invalid & i notin shared) | (i notin dirty & i notin dirtyshared & i notin exclusive & i in invalid & i notin shared) | (i notin dirty & i notin dirtyshared & i notin exclusive & i notin invalid & i in shared)))"
            ]
        },
        "log": [],
        "time": "25.539ms",
        "reduction time": "0.009ms"
    }
}
