{
    "initialization time": "602.385ms",
    "0-n-1-leaders": {
        "result": true,
        "final sets": {
            "traps": [],
            "flows": [
                "n = 2 & emptyBuffer = {0} & follower = empty & leader = {1} & one = {0} & oneMarked = {0, 1} & two = {0} & twoMarked = {0}"
            ],
            "siphons": [
                "n = 3 & emptyBuffer = empty & follower = empty & leader = {2} & one = empty & oneMarked = {1, 2} & two = empty & twoMarked = empty",
                "(4 <= n) & 0 notin emptyBuffer & 0 notin follower & 0 notin leader & 0 notin one & 0 notin oneMarked & 0 notin two & 0 notin twoMarked & 1 notin emptyBuffer & 1 notin follower & 1 notin leader & 1 notin one & 1 notin two & 1 notin twoMarked & 1 in oneMarked & n-1 notin emptyBuffer & n-1 notin follower & n-1 notin one & n-1 notin two & n-1 notin twoMarked & n-1 in leader & n-1 in oneMarked & all1 i: ((1 < i & i < n-1) => (i notin emptyBuffer & i notin follower & i notin leader & i notin one & i notin two & i notin twoMarked & i in oneMarked))"
            ],
            "invariants": [
                "all1 i: (in_size(i) => ((i in emptyBuffer & i notin one & i notin oneMarked & i notin two & i notin twoMarked) | (i notin emptyBuffer & i in one & i notin oneMarked & i notin two & i notin twoMarked) | (i notin emptyBuffer & i notin one & i in oneMarked & i notin two & i notin twoMarked) | (i notin emptyBuffer & i notin one & i notin oneMarked & i in two & i notin twoMarked) | (i notin emptyBuffer & i notin one & i notin oneMarked & i notin two & i in twoMarked)))",
                "all1 i: (in_size(i) => ((i in follower & i notin leader) | (i notin follower & i in leader)))"
            ]
        },
        "log": [
            {
                "counter example": "{'n': 2, 'emptyBuffer': (), 'follower': (1,), 'leader': (0,), 'one': (), 'oneMarked': (1,), 'two': (), 'twoMarked': (0,)}",
                "flow": "{'FemptyBuffer': (0,), 'Ffollower': (), 'Fleader': (1,), 'Fone': (0,), 'FoneMarked': (0, 1), 'Ftwo': (0,), 'FtwoMarked': (0,), 'n': 2}",
                "info": "adding new flow generator: n = 2 & emptyBuffer = {0} & follower = empty & leader = {1} & one = {0} & oneMarked = {0, 1} & two = {0} & twoMarked = {0}"
            },
            {
                "counter example": "{'n': 3, 'emptyBuffer': (), 'follower': (2,), 'leader': (0, 1), 'one': (), 'oneMarked': (2,), 'two': (), 'twoMarked': (0, 1)}",
                "flow": "{'FemptyBuffer': (2,), 'Ffollower': (), 'Fleader': (1,), 'Fone': (2,), 'FoneMarked': (1, 2), 'Ftwo': (2,), 'FtwoMarked': (2,), 'n': 3}",
                "info": "adding new flow generator: n = 3 & emptyBuffer = {2} & follower = empty & leader = {1} & one = {2} & oneMarked = {1, 2} & two = {2} & twoMarked = {2}"
            },
            {
                "counter example": "{'n': 3, 'emptyBuffer': (), 'follower': (1, 2), 'leader': (0,), 'one': (), 'oneMarked': (2,), 'two': (), 'twoMarked': (0, 1)}",
                "trap": "{'TemptyBuffer': (0, 1, 2), 'Tfollower': (), 'Tleader': (), 'Tone': (), 'ToneMarked': (), 'Ttwo': (), 'TtwoMarked': (), 'n': 3}",
                "info": "adding new trap generator: n = 3 & emptyBuffer = {0, 1, 2} & follower = empty & leader = empty & one = empty & oneMarked = empty & two = empty & twoMarked = empty"
            },
            {
                "counter example": "{'n': 3, 'emptyBuffer': (1,), 'follower': (1, 2), 'leader': (0,), 'one': (), 'oneMarked': (2,), 'two': (), 'twoMarked': (0,)}",
                "siphon": "{'SemptyBuffer': (), 'Sfollower': (), 'Sleader': (), 'Sone': (), 'SoneMarked': (1, 2), 'Stwo': (), 'StwoMarked': (), 'n': 3}",
                "info": "adding new siphon generator: n = 3 & emptyBuffer = empty & follower = empty & leader = empty & one = empty & oneMarked = {1, 2} & two = empty & twoMarked = empty"
            },
            {
                "counter example": "{'n': 4, 'emptyBuffer': (), 'follower': (3,), 'leader': (0, 1, 2), 'one': (), 'oneMarked': (3,), 'two': (), 'twoMarked': (0, 1, 2)}",
                "flow": "{'FemptyBuffer': (2,), 'Ffollower': (), 'Fleader': (1,), 'Fone': (2,), 'FoneMarked': (1, 2), 'Ftwo': (2,), 'FtwoMarked': (2,), 'n': 4}",
                "info": "adding new flow generator: n = 4 & emptyBuffer = {2} & follower = empty & leader = {1} & one = {2} & oneMarked = {1, 2} & two = {2} & twoMarked = {2}"
            },
            {
                "counter example": "{'n': 4, 'emptyBuffer': (), 'follower': (1, 3), 'leader': (0, 2), 'one': (), 'oneMarked': (3,), 'two': (), 'twoMarked': (0, 1, 2)}",
                "trap": "{'TemptyBuffer': (0, 1, 2, 3), 'Tfollower': (), 'Tleader': (), 'Tone': (), 'ToneMarked': (), 'Ttwo': (), 'TtwoMarked': (), 'n': 4}",
                "info": "adding new trap generator: n = 4 & emptyBuffer = {0, 1, 2, 3} & follower = empty & leader = empty & one = empty & oneMarked = empty & two = empty & twoMarked = empty"
            },
            {
                "counter example": "{'n': 4, 'emptyBuffer': (2,), 'follower': (1, 3), 'leader': (0, 2), 'one': (), 'oneMarked': (3,), 'two': (), 'twoMarked': (0, 1)}",
                "siphon": "{'SemptyBuffer': (), 'Sfollower': (), 'Sleader': (), 'Sone': (), 'SoneMarked': (1, 2, 3), 'Stwo': (), 'StwoMarked': (), 'n': 4}",
                "info": "adding new siphon generator: n = 4 & emptyBuffer = empty & follower = empty & leader = empty & one = empty & oneMarked = {1, 2, 3} & two = empty & twoMarked = empty"
            },
            {
                "counter example": "{'n': 5, 'emptyBuffer': (), 'follower': (4,), 'leader': (0, 1, 2, 3), 'one': (), 'oneMarked': (4,), 'two': (), 'twoMarked': (0, 1, 2, 3)}",
                "flow": "{'FemptyBuffer': (2,), 'Ffollower': (), 'Fleader': (1,), 'Fone': (2,), 'FoneMarked': (1, 2), 'Ftwo': (2,), 'FtwoMarked': (2,), 'n': 5}",
                "info": "adding new flow generator: 3 <= n & ex1 i0, i1, i2: (is_next(i0, i1) & is_next(i1, i2) & i0 = 0 & i1 = 1 & i2 ~= 0 & i2 ~= 1 & i2 ~= n-1 & in_size(i0) & emptyBuffer = {i2} & follower = empty & leader = {i1} & one = {i2} & oneMarked = {i1, i2} & two = {i2} & twoMarked = {i2})"
            },
            {
                "counter example": "{'n': 5, 'emptyBuffer': (), 'follower': (1, 4), 'leader': (0, 2, 3), 'one': (), 'oneMarked': (4,), 'two': (), 'twoMarked': (0, 1, 2, 3)}",
                "trap": "{'TemptyBuffer': (0, 1, 2, 3, 4), 'Tfollower': (), 'Tleader': (), 'Tone': (), 'ToneMarked': (), 'Ttwo': (), 'TtwoMarked': (), 'n': 5}",
                "info": "adding new trap generator: (4 <= n) & 0 notin follower & 0 notin leader & 0 notin one & 0 notin oneMarked & 0 notin two & 0 notin twoMarked & 0 in emptyBuffer & 1 notin follower & 1 notin leader & 1 notin one & 1 notin oneMarked & 1 notin two & 1 notin twoMarked & 1 in emptyBuffer & n-1 notin follower & n-1 notin leader & n-1 notin one & n-1 notin oneMarked & n-1 notin two & n-1 notin twoMarked & n-1 in emptyBuffer & all1 i: ((1 < i & i < n-1) => (i notin follower & i notin leader & i notin one & i notin oneMarked & i notin two & i notin twoMarked & i in emptyBuffer))"
            },
            {
                "counter example": "{'n': 5, 'emptyBuffer': (3,), 'follower': (1, 4), 'leader': (0, 2, 3), 'one': (), 'oneMarked': (4,), 'two': (), 'twoMarked': (0, 1, 2)}",
                "siphon": "{'SemptyBuffer': (), 'Sfollower': (), 'Sleader': (), 'Sone': (), 'SoneMarked': (1, 2, 3, 4), 'Stwo': (), 'StwoMarked': (), 'n': 5}",
                "info": "adding new siphon generator: (4 <= n) & 0 notin emptyBuffer & 0 notin follower & 0 notin leader & 0 notin one & 0 notin oneMarked & 0 notin two & 0 notin twoMarked & 1 notin emptyBuffer & 1 notin follower & 1 notin leader & 1 notin one & 1 notin two & 1 notin twoMarked & 1 in oneMarked & n-1 notin emptyBuffer & n-1 notin follower & n-1 notin leader & n-1 notin one & n-1 notin two & n-1 notin twoMarked & n-1 in oneMarked & all1 i: ((1 < i & i < n-1) => (i notin emptyBuffer & i notin follower & i notin leader & i notin one & i notin two & i notin twoMarked & i in oneMarked))"
            },
            {
                "counter example": "{'n': 3, 'emptyBuffer': (2,), 'follower': (0, 1), 'leader': (2,), 'one': (), 'oneMarked': (), 'two': (), 'twoMarked': (0, 1)}",
                "siphon": "{'SemptyBuffer': (), 'Sfollower': (), 'Sleader': (2,), 'Sone': (), 'SoneMarked': (1, 2), 'Stwo': (), 'StwoMarked': (), 'n': 3}",
                "info": "adding new siphon generator: n = 3 & emptyBuffer = empty & follower = empty & leader = {2} & one = empty & oneMarked = {1, 2} & two = empty & twoMarked = empty"
            },
            {
                "counter example": "{'n': 4, 'emptyBuffer': (3,), 'follower': (0, 1), 'leader': (2, 3), 'one': (), 'oneMarked': (), 'two': (), 'twoMarked': (0, 1, 2)}",
                "siphon": "{'SemptyBuffer': (), 'Sfollower': (), 'Sleader': (3,), 'Sone': (), 'SoneMarked': (1, 2, 3), 'Stwo': (), 'StwoMarked': (), 'n': 4}",
                "info": "adding new siphon generator: n = 4 & emptyBuffer = empty & follower = empty & leader = {3} & one = empty & oneMarked = {1, 2, 3} & two = empty & twoMarked = empty"
            },
            {
                "counter example": "{'n': 5, 'emptyBuffer': (4,), 'follower': (0, 1), 'leader': (2, 3, 4), 'one': (), 'oneMarked': (), 'two': (), 'twoMarked': (0, 1, 2, 3)}",
                "siphon": "{'SemptyBuffer': (), 'Sfollower': (), 'Sleader': (4,), 'Sone': (), 'SoneMarked': (1, 2, 3, 4), 'Stwo': (), 'StwoMarked': (), 'n': 5}",
                "info": "adding new siphon generator: (4 <= n) & 0 notin emptyBuffer & 0 notin follower & 0 notin leader & 0 notin one & 0 notin oneMarked & 0 notin two & 0 notin twoMarked & 1 notin emptyBuffer & 1 notin follower & 1 notin leader & 1 notin one & 1 notin two & 1 notin twoMarked & 1 in oneMarked & n-1 notin emptyBuffer & n-1 notin follower & n-1 notin one & n-1 notin two & n-1 notin twoMarked & n-1 in leader & n-1 in oneMarked & all1 i: ((1 < i & i < n-1) => (i notin emptyBuffer & i notin follower & i notin leader & i notin one & i notin two & i notin twoMarked & i in oneMarked))"
            }
        ],
        "time": "847.992ms",
        "reduction time": "1470.649ms"
    }
}
