{
  "name": "Synapse cache coherence protocol",
  "info": "This description is lifted from https://person.dibris.unige.it/delzanno-giorgio/CacheProtocol/synapse.hy",
  "states": ["invalid", "dirty", "valid"],
  "cover": [["invalid", "dirty", "valid"]],
  "initial": {
    "others": ["invalid"]
  },
  "topology": "crowd",
  "properties": {
    "dirtydirty": "ex1 i, j: 0 <= i & i < n & 0 <= j & j < n & i ~= j & (i in dirty & j in dirty)",
    "dirtyvalid": "ex1 i, j: 0 <= i & i < n & 0 <= j & j < n & i ~= j & (i in dirty & j in valid)"
  },
  "transitions": [
    {
      "rendezvous": {
        "p": [
          {
            "preset": ["dirty"],
            "postset": ["dirty"]
          }, {
            "preset": ["valid"],
            "postset": ["valid"]
          }
        ]
      }
    }, {
      "rendezvous": {
        "p": [
          {
            "preset": ["invalid"],
            "postset": ["valid"]
          }
        ]
      },
      "broadcasts": [
        {
          "guard": "o ~= p",
          "changes": [
            {
              "preset": ["invalid"],
              "postset": ["invalid"]
            }, {
              "preset": ["valid"],
              "postset": ["valid"]
            }, {
              "preset": ["dirty"],
              "postset": ["invalid"]
            }
          ]
        }
      ]
    }, {
      "rendezvous": {
        "p": [
          {
            "preset": ["valid"],
            "postset": ["dirty"]
          }
        ]
      },
      "broadcasts": [
        {
          "guard": "o ~= p",
          "changes": [
            {
              "preset": ["invalid"],
              "postset": ["invalid"]
            }, {
              "preset": ["valid"],
              "postset": ["invalid"]
            }, {
              "preset": ["dirty"],
              "postset": ["invalid"]
            }
          ]
        }
      ]
    }, {
      "rendezvous": {
        "p": [
          {
            "preset": ["dirty"],
            "postset": ["dirty"]
          }
        ]
      }
    }, {
      "rendezvous": {
        "p": [
          {
            "preset": ["invalid"],
            "postset": ["dirty"]
          }
        ]
      },
      "broadcasts": [
        {
          "guard": "o ~= p",
          "changes": [
            {
              "preset": ["invalid"],
              "postset": ["invalid"]
            }, {
              "preset": ["valid"],
              "postset": ["invalid"]
            }, {
              "preset": ["dirty"],
              "postset": ["invalid"]
            }
          ]
        }
      ]
    }, {
      "rendezvous": {
        "p": [
          {
            "preset": ["dirty"],
            "postset": ["invalid"]
          }, {
            "preset": ["valid"],
            "postset": ["invalid"]
          }
        ]
      }
    }
  ]
}
