{
  "name": "Burns' algorithm for mutual exclusion",
  "states": ["PC1", "PC2", "PC3", "PC4", "PC5", "PC6"],
  "cover": [["PC1", "PC2", "PC3", "PC4", "PC5", "PC6"]],
  "topology": "array",
  "initial": {
    "others": ["PC1"]
  },
  "properties": {
    "mutex": "ex1 i, j: 0 <= i & i < j & j < n & i in PC6 & j in PC6"
  },
  "transitions": [
    {
      "rendezvous": {
        "p": [
          {
            "preset": ["PC1"],
            "postset": ["PC2"]
          }
        ]
      }
    },
    {
      "rendezvous": {
        "guard": "p ~= q",
        "p": [
          {
            "preset": ["PC2"],
            "postset": ["PC1"]
          }
        ],
        "q": [
          {
            "preset": ["PC4"],
            "postset": ["PC4"]
          }, {
            "preset": ["PC5"],
            "postset": ["PC5"]
          }, {
            "preset": ["PC6"],
            "postset": ["PC6"]
          }
        ]
      }
    }, {
      "rendezvous": {
        "p": [
          {
            "preset": ["PC2"],
            "postset": ["PC3"]
          }
        ]
      },
      "broadcasts": [
        {
          "guard": "p ~= o",
          "changes": [
            {
              "preset": ["PC1"],
              "postset": ["PC1"]
            }, {
              "preset": ["PC2"],
              "postset": ["PC2"]
            }, {
              "preset": ["PC3"],
              "postset": ["PC3"]
            }
          ]
        }
      ]
    }, {
      "rendezvous": {
        "p": [
          {
            "preset": ["PC3"],
            "postset": ["PC4"]
          }
        ]
      }
    }, {
      "rendezvous": {
        "guard": "p ~= q",
        "p": [
          {
            "preset": ["PC4"],
            "postset": ["PC1"]
          }
        ],
        "q": [
          {
            "preset": ["PC4"],
            "postset": ["PC4"]
          }, {
            "preset": ["PC5"],
            "postset": ["PC5"]
          }, {
            "preset": ["PC6"],
            "postset": ["PC6"]
          }
        ]
      }
    }, {
      "rendezvous": {
        "p": [
          {
            "preset": ["PC4"],
            "postset": ["PC5"]
          }
        ]
      },
      "broadcasts": [
        {
          "guard": "o < p",
          "changes": [
            {
              "preset": ["PC1"],
              "postset": ["PC1"]
            }, {
              "preset": ["PC2"],
              "postset": ["PC2"]
            }, {
              "preset": ["PC3"],
              "postset": ["PC3"]
            }
          ]
        }
      ]
    }, {
      "rendezvous": {
        "p": [
          {
            "preset": ["PC5"],
            "postset": ["PC6"]
          }
        ]
      },
      "broadcasts": [
        {
          "guard": "p < o",
          "changes": [
            {
              "preset": ["PC1"],
              "postset": ["PC1"]
            }, {
              "preset": ["PC2"],
              "postset": ["PC2"]
            }, {
              "preset": ["PC3"],
              "postset": ["PC3"]
            }
          ]
        }
      ]
    }, {
      "rendezvous": {
        "p": [
          {
            "preset": ["PC6"],
            "postset": ["PC1"]
          }
        ]
      }
    }
  ]
}
